{
  "usesTypeScript": true,
  "usesCssModule": true,
  "cssPreprocessor": "sass",
  "testLibrary": "Testing Library",
  "component": {
    "default": {
      "path": "src/components",
      "withStyle": true,
      "withTest": true,
      "withStory": true,
      "withLazy": true
    }
  }
}